^C:\STUDY\20465\MAMAN12\MAGIC\MAGIC.C
/c /ZI /nologo /W3 /WX- /diagnostics:classic /sdl /Od /D _MBCS /Gm /EHsc /RTC1 /MDd /GS /fp:precise /Zc:wchar_t /Zc:forScope /Zc:inline /Fo"X64\DEBUG\\" /Fd"X64\DEBUG\VC141.PDB" /Gd /TC C:\STUDY\20465\MAMAN12\MAGIC\MAGIC.C
^C:\STUDY\20465\MAMAN12\MAGIC\MAGIC_IO.C
/c /ZI /nologo /W3 /WX- /diagnostics:classic /sdl /Od /D _MBCS /Gm /EHsc /RTC1 /MDd /GS /fp:precise /Zc:wchar_t /Zc:forScope /Zc:inline /Fo"X64\DEBUG\\" /Fd"X64\DEBUG\VC141.PDB" /Gd /TC C:\STUDY\20465\MAMAN12\MAGIC\MAGIC_IO.C
^C:\STUDY\20465\MAMAN12\MAGIC\MAGIC_MATH.C
/c /ZI /nologo /W3 /WX- /diagnostics:classic /sdl /Od /D _MBCS /Gm /EHsc /RTC1 /MDd /GS /fp:precise /Zc:wchar_t /Zc:forScope /Zc:inline /Fo"X64\DEBUG\\" /Fd"X64\DEBUG\VC141.PDB" /Gd /TC C:\STUDY\20465\MAMAN12\MAGIC\MAGIC_MATH.C
^C:\STUDY\20465\MAMAN12\MAGIC\UTILS.C
/c /ZI /nologo /W3 /WX- /diagnostics:classic /sdl /Od /D _MBCS /Gm /EHsc /RTC1 /MDd /GS /fp:precise /Zc:wchar_t /Zc:forScope /Zc:inline /Fo"X64\DEBUG\\" /Fd"X64\DEBUG\VC141.PDB" /Gd /TC C:\STUDY\20465\MAMAN12\MAGIC\UTILS.C
